[
    {
        "HotelID" : 1,
        "HotelName" : "Hotel Milton Roma",
        "Location" : "Central station, Rome",
        "SubwayAccess": "Yes",
        "Rating": 8.5,
        "DistanceFromCenter" : 1.3,
        "Picture": "https://cf.bstatic.com/xdata/images/hotel/square600/268459806.webp?k=a08e7d3eca7719a2bc164cfa5eac824b666608db2b13986add4f5a8aa0dc73f8&o='",
        "Description": "This property offers a Special Protection Program, a strict program of precise safeguards dedicated to our guests and our staff.",
        "AdditionalInfo": "Booked 11 times in the last 12 hours"
    },

    {
        "HotelID" : 2,
        "HotelName" : "Best Western Premier Hotel Royal Santina",
        "Location" : "Central station, Rome",
        "SubwayAccess": "Yes",
        "Rating": 8.6,
        "DistanceFromCenter" : 1.8,
        "Picture": "https://cf.bstatic.com/xdata/images/hotel/square600/225419410.webp?k=256f497193dd377c247e1317937c1e9ffcf4ecf222956abb0c204959043becdc&o=",
        "Description": "This property offers a Special Protection Program, a strict program of precise safeguards dedicated to our guests and our staff.",
        "AdditionalInfo": "Booked 14 times in the last 12 hours"
    },

    {
        "HotelID" : 3,
        "HotelName" : "Exe International Palace",
        "Location" : "Rione Monti, Rome",
        "SubwayAccess": "Yes",
        "Rating": 8.2,
        "DistanceFromCenter" : 1.8,
        "Picture": "https://cf.bstatic.com/xdata/images/hotel/square600/304635948.webp?k=9506a7cec4e79c2a066f1592f52add23f8b6c6487a4070d899f98ac49baf55c7&o=",
        "Description": "Set in a beautiful 19th-century building, Exe International Palace is a hotel with free WiFi set across the road from Rome's Opera Theater. Its elegant rooms feature air conditioning and satellite TV....",
        "AdditionalInfo": "Booked 7 times in the last 12 hours"
    },

    {
        "HotelID" : 4,
        "HotelName" : "Hotel California",
        "Location" : "Central station, Rome",
        "SubwayAccess": "Yes",
        "Rating": 8.0,
        "DistanceFromCenter" : 1.4,
        "Picture": "https://cf.bstatic.com/xdata/images/hotel/square600/70484675.webp?k=35c3c7bada7056333d74ada85a4bc242df70a3fff36ae4f2042d2926e0aeb50d&o=",
        "Description": "Hotel California is 492 feet from Termini Train and Metro Station, and is surrounded by restaurants and bars.",
        "AdditionalInfo": "Booked 5 times in the last 12 hours"
    },

    {
        "HotelID" : 5,
        "HotelName" : "Best Western Plus Hotel Spring House",
        "Location" : "Vaticano Prati, Rome",
        "SubwayAccess": "Yes",
        "Rating": 8.8,
        "DistanceFromCenter" : 2.9,
        "Picture": "https://cf.bstatic.com/xdata/images/hotel/square600/271537496.webp?k=0a57b40f7d6742898f362a1a23a9a7420a1b659b30804015258ece33cd9b2073&o=",
        "Description": "This property offers a Special Protection Program, a strict program of precise safeguards dedicated to our guests and our staff.",
        "AdditionalInfo": "Booked 11 times in the last 12 hours"
    },

    {
        "HotelID" : 6,
        "HotelName" : "Suites Pantheon Rome",
        "Location" : "Pantheon, Rome",
        "SubwayAccess": "No",
        "Rating": 8.1,
        "DistanceFromCenter" : 0.8,
        "Picture": "https://cf.bstatic.com/xdata/images/hotel/square600/307523564.webp?k=afbdc2f922e07667f6ac2700767cac8dd69ae4411fa85e687fc3efd2338b4a02&o=",
        "Description": "Stay in elegant and modern design suites on the second floor of an 18th-century townhouse in the center of Rome, between Campo dei Fiori, the Pantheon and Piazza Navona.",
        "AdditionalInfo": "Booked 2 times in the last 12 hours"
    },

    {
        "HotelID" : 7,
        "HotelName" : "Guest House Al Conservatorio",
        "Location" : "Navona, Rome",
        "SubwayAccess": "No",
        "Rating": 9.4,
        "DistanceFromCenter" : 0.9,
        "Picture": "https://cf.bstatic.com/xdata/images/hotel/square600/207771665.webp?k=2447dc79c5c9b617e84a538e750b321960c396551c3888f45bb7f9ee3013c38c&o=",
        "Description": "Located 984 feet from Campo de' Fiori, C-Rome features free WiFi access and private parking. Piazza Navona is 10 minutes' walk away.",
        "AdditionalInfo": "Booked 1 time in the last 12 hours"
    },

    {
        "HotelID" : 8,
        "HotelName" : "Relais Quattro Fontane",
        "Location" : "Trevi, Rome",
        "SubwayAccess": "Yes",
        "Rating": 9.0,
        "DistanceFromCenter" : 1,
        "Picture": "https://cf.bstatic.com/xdata/images/hotel/square600/47083575.webp?k=9efec6a58bac66e9b9f6f4f69449db9062acf306655af4499393bed113545a2f&o=",
        "Description": "Relais Quattro Fontane is a guest house set along Via 20 Settembre main street and offers free WiFi and elegantly furnished rooms with a flat-screen satellite TV.",
        "AdditionalInfo": "Booked 3 time in the last 12 hours"
    },

    {
        "HotelID" : 9,
        "HotelName" : "Navona Nice Room",
        "Location" : "Navona, Rome",
        "SubwayAccess": "No",
        "Rating": 8.6,
        "DistanceFromCenter" : 1.3,
        "Picture": "https://cf.bstatic.com/xdata/images/hotel/square600/159599678.webp?k=d6efb0370b54435c65f302d75161443b63e8b2ed04e9040b342e981343c1d3ec&o=",
        "Description": "Navona Nice Room is located in Rome's elegant Piazza Sforza Cesarini, centrally located on Corso Vittorio Emanuele II. The b&b is on the 2nd floor of a historic building with elevator.",
        "AdditionalInfo": "Booked 2 times in the last 1 hour"
    },

    {
        "HotelID" : 10,
        "HotelName" : "Residenza Venti Settembre",
        "Location" : "Via Veneto, Rome",
        "SubwayAccess": "No",
        "Rating": 8.8,
        "DistanceFromCenter" : 1.9,
        "Picture": "https://cf.bstatic.com/xdata/images/hotel/square600/164599818.webp?k=54006c19ac7448ce27c687d1da23760403e0f09581095ff1ae307b1b3a8978f4&o=",
        "Description": "Residenza Venti Settembre features free WiFi and rooms with air conditioning in Rome.",
        "AdditionalInfo": "Booked 4 times in the last 12 hours"
    },

    {
        "HotelID" : 11,
        "HotelName" : "Room 230 Luxury Suites",
        "Location" : "Central station, Rome",
        "SubwayAccess": "Yes",
        "Rating": 8.9,
        "DistanceFromCenter" : 1.1,
        "Picture": "https://cf.bstatic.com/xdata/images/hotel/square600/54757804.webp?k=6c0b0218acf9bc3d67edfc3ed90cc8a1f74bfd779b6f5ae1c9c1e8c16947f11e&o=",
        "Description": "Located in Rome and with Piazza Barberini reachable within 1969 feet, Room 230 Roma Luxury Suites provides concierge services, allergy-free rooms, a bar, free WiFi throughout the property and a shared...",
        "AdditionalInfo": "Booked 6 times in the last 12 hours"
    },

    {
        "HotelID" : 12,
        "HotelName" : "The Club Navona",
        "Location" : "Navona, Rome",
        "SubwayAccess": "No",
        "Rating": 9.1,
        "DistanceFromCenter" : 0.9,
        "Picture": "https://cf.bstatic.com/xdata/images/hotel/square200/78936176.jpg?k=ccb8d756d1fd379c9f4a7c3c9e1aa42e6b35f89535197e686085c28fa4d7cbf6&o=",
        "Description": "Set 820 feet from Piazza Navona in Rome, The Club Navona offers a terrace, shared living area and elegant accommodations with free WiFi throughout. Campo de' Fiori is 984 feet away.",
        "AdditionalInfo": "Booked 9 times in the last 12 hours"
    },

    {
        "HotelID" : 13,
        "HotelName" : "Roma Suite Monti",
        "Location" : "Rione Monti, Rome",
        "SubwayAccess": "Yes",
        "Rating": 9.2,
        "DistanceFromCenter" : 1.0,
        "Picture": "https://cf.bstatic.com/xdata/images/hotel/square200/78936176.jpg?k=ccb8d756d1fd379c9f4a7c3c9e1aa42e6b35f89535197e686085c28fa4d7cbf6&o=",
        "Description": "Located in Rome, within 1312 feet of Santa Maria Maggiore and 0.7 mi of Quirinal Hill, Roma Suite Monti provides accommodations with free WiFi throughout the property.",
        "AdditionalInfo": "Booked 4 times in the last 12 hours"
    }, 

    {
        "HotelID" : 14,
        "HotelName" : "Navona Queen Rooftop",
        "Location" : "Navona, Rome",
        "SubwayAccess": "No",
        "Rating": 9.3,
        "DistanceFromCenter" : 1.2,
        "Picture": "https://cf.bstatic.com/xdata/images/hotel/square200/79504861.jpg?k=679a4e2f8060385dabc24fddb1dac39c97280eb45e2292bcbc90361aaacbfb58&o=",
        "Description": "Across the road from Campo de' Fiori, Navona Queen Rooftop is in a 19th century building and offers a panoramic terrace with a hot tub overlooking Rome, Castel Sant'Angelo and the Gianicolo hill.",
        "AdditionalInfo": "Booked 1 times in the last 12 hours"
    },

    {
        "HotelID" : 15,
        "HotelName" : "Hotel Medici",
        "Location" : "Via Veneto, Rome",
        "SubwayAccess": "No",
        "Rating": 8.5,
        "DistanceFromCenter" : 1.8,
        "Picture": "https://cf.bstatic.com/xdata/images/hotel/square200/23752000.jpg?k=cf93f88be0e44debc2498bd73a5c11ce4caf554ab6b7829c14acae7fd68ec79f&o=",
        "Description": "Hotel Medici is in an elegant 19tyh-century building, a short walk from Rome's Villa Borghese Park. The rooms are modern, spacious and stylish, and provide free Wi-Fi.",
        "AdditionalInfo": "Booked 1 times in the last 12 hours"
    }
]